"","brand"
"1","alfa_romeo"
"2","audi"
"3","bmw"
"4","chevrolet"
"5","chrysler"
"6","citroen"
"7","dacia"
"8","daewoo"
"9","daihatsu"
"10","fiat"
"11","ford"
"12","honda"
"13","hyundai"
"14","jaguar"
"15","jeep"
"16","kia"
"17","lada"
"18","lancia"
"19","land_rover"
"20","mazda"
"21","mercedes_benz"
"22","mini"
"23","mitsubishi"
"24","nissan"
"25","opel"
"26","peugeot"
"27","porsche"
"28","renault"
"29","rover"
"30","saab"
"31","seat"
"32","skoda"
"33","smart"
"34","subaru"
"35","suzuki"
"36","toyota"
"37","trabant"
"38","volkswagen"
"39","volvo"
